User1,User1
User2,User2
User3,User3
User4,User4
User5,User5
User6,User6
User7,User7
User8,User8
User9,User9
User10,User10
User11,User11
User12,User12
User13,User13
User14,User14
User15,User15
User16,User16
User17,User17
User18,User18
User19,User19
User20,User20
User21,User21
User22,User22
User23,User23
User24,User24
User25,User25
User26,User26
User27,User27
User28,User28
User29,User29
User30,User30
User31,User31
User32,User32
User33,User33
User34,User34
User35,User35
User36,User36
User37,User37
User38,User38
User39,User39
User40,User40
User41,User41
User42,User42
User43,User43
User44,User44
User45,User45
User46,User46
User47,User47
User48,User48
User49,User49
User50,User50
