User1,User1
User2,User2
User3,User3
User4,User4
User5,User5
User6,User6
User7,User7
User8,User8
User9,User9
User10,User10
User11,User11
User12,User12
User13,User13
User14,User14
User15,User15
User16,User16
User17,User17
User18,User18
User19,User19
User20,User20
User21,User21
User22,User22
User23,User23
User24,User24
User25,User25
User26,User26
User27,User27
User28,User28
User29,User29
User30,User30