T0 v T1
T0 v T2
T0 v T3
T0 v T4
T0 v T5
T0 v T6
T0 v T7
T0 v T8
T0 v T9
T1 v T0
T1 v T2
T1 v T3
T1 v T4
T1 v T5
T1 v T6
T1 v T7
T1 v T8
T1 v T9
T2 v T0
T2 v T1
T2 v T3
T2 v T4
T2 v T5
T2 v T6
T2 v T7
T2 v T8
T2 v T9
T3 v T0
T3 v T1
T3 v T2
