T0 v T1
T0 v T2
T0 v T3
T0 v T4
T0 v T5
T0 v T6
T0 v T7
T0 v T8
T0 v T9
T1 v T0
T1 v T2
T1 v T3
T1 v T4
T1 v T5
T1 v T6
T1 v T7
T1 v T8
T1 v T9
T2 v T0
T2 v T1
T2 v T3
T2 v T4
T2 v T5
T2 v T6
T2 v T7
T2 v T8
T2 v T9
T3 v T0
T3 v T1
T3 v T2
T3 v T4
T3 v T5
T3 v T6
T3 v T7
T3 v T8
T3 v T9
T4 v T0
T4 v T1
T4 v T2
T4 v T3
T4 v T5
T4 v T6
T4 v T7
T4 v T8
T4 v T9
T5 v T0
T5 v T1
T5 v T2
T5 v T3
T5 v T4
T5 v T6
T5 v T7
T5 v T8
T5 v T9
T6 v T0
T6 v T1
T6 v T2
T6 v T3
T6 v T4
T6 v T5
T6 v T7
T6 v T8
T6 v T9
T7 v T0
T7 v T1
T7 v T2
T7 v T3
T7 v T4
T7 v T5
T7 v T6
T7 v T8
T7 v T9
T8 v T0
T8 v T1
T8 v T2
T8 v T3
T8 v T4
T8 v T5
T8 v T6
T8 v T7
T8 v T9
T9 v T0
T9 v T1
T9 v T2
T9 v T3
T9 v T4
T9 v T5
T9 v T6
T9 v T7
T9 v T8